0 0

1 0

(0, 0)
2 1

(0, 0)
3 1

(0, 0)
4 1

(0, 0)
5 1

(0, 0)
6 1

(0, 0)
7 1

(0, 0)
8 1

(0, 0)
9 1

(0, 0)
10 1

(0, 0)
11 1

(0, 0)
(3, 4)
12 2

(0, 0)
13 1

(0, 0)
14 1

(0, 0)
(3, 5)
15 2

(0, 0)
16 1

(0, 0)
17 1

(0, 0)
18 1

(0, 0)
19 1

(0, 0)
(4, 5)
20 2

(0, 0)
(3, 7)
21 2

(0, 0)
22 1

(0, 0)
23 1

(0, 0)
(3, 8)
(6, 8)
24 3

(0, 0)
25 1

(0, 0)
26 1

(0, 0)
27 1

(0, 0)
(4, 7)
28 2

(0, 0)
29 1

(0, 0)
(3, 10)
(5, 6)
(6, 10)
30 4

(0, 0)
31 1

(0, 0)
32 1

(0, 0)
(3, 11)
33 2

(0, 0)
34 1

(0, 0)
(5, 7)
35 2

(0, 0)
(4, 9)
(9, 12)
36 3

(0, 0)
37 1

(0, 0)
38 1

(0, 0)
(3, 13)
39 2

(0, 0)
(5, 8)
(8, 10)
40 3

(0, 0)
41 1

(0, 0)
(3, 14)
(6, 7)
(6, 14)
42 4

(0, 0)
43 1

(0, 0)
(4, 11)
44 2

(0, 0)
(5, 9)
(9, 15)
45 3

(0, 0)
46 1

(0, 0)
47 1

(0, 0)
(3, 16)
(6, 16)
(12, 16)
48 4

(0, 0)
49 1

(0, 0)
50 1

(0, 0)
(3, 17)
51 2

(0, 0)
(4, 13)
52 2

(0, 0)
53 1

(0, 0)
54 1

(0, 0)
(5, 11)
55 2

(0, 0)
(7, 8)
(8, 14)
56 3

(0, 0)
(3, 19)
57 2

(0, 0)
58 1

(0, 0)
59 1

(0, 0)
(3, 20)
(4, 15)
(5, 12)
(6, 20)
(10, 12)
(12, 15)
(12, 20)
(15, 20)
60 9

(0, 0)
61 1

(0, 0)
62 1

(0, 0)
(7, 9)
(9, 21)
63 3

(0, 0)
64 1

(0, 0)
(5, 13)
65 2

(0, 0)
(3, 22)
(6, 11)
(6, 22)
66 4

(0, 0)
67 1

(0, 0)
(4, 17)
68 2

(0, 0)
(3, 23)
69 2

(0, 0)
(5, 14)
(7, 10)
(10, 14)
70 4

(0, 0)
71 1

(0, 0)
(8, 9)
(8, 18)
(9, 24)
(18, 24)
72 5

(0, 0)
73 1

(0, 0)
74 1

(0, 0)
(3, 25)
(15, 25)
75 3

(0, 0)
(4, 19)
76 2

(0, 0)
(7, 11)
77 2

(0, 0)
(3, 26)
(6, 13)
(6, 26)
78 4

(0, 0)
79 1

(0, 0)
(5, 16)
(10, 16)
(16, 20)
80 4

(0, 0)
81 1

(0, 0)
82 1

(0, 0)
83 1

(0, 0)
(3, 28)
(4, 21)
(6, 28)
(7, 12)
(12, 14)
(12, 21)
(12, 28)
(21, 28)
84 9

(0, 0)
(5, 17)
85 2

(0, 0)
86 1

(0, 0)
(3, 29)
87 2

(0, 0)
(8, 11)
(8, 22)
88 3

(0, 0)
89 1

(0, 0)
(5, 18)
(9, 10)
(9, 30)
(10, 18)
(15, 18)
(18, 30)
90 7

(0, 0)
(7, 13)
91 2

(0, 0)
(4, 23)
92 2

(0, 0)
(3, 31)
93 2

(0, 0)
94 1

(0, 0)
(5, 19)
95 2

(0, 0)
(3, 32)
(6, 32)
(12, 32)
(24, 32)
96 5

(0, 0)
97 1

(0, 0)
98 1

(0, 0)
(9, 11)
(9, 33)
99 3

(0, 0)
(4, 25)
(20, 25)
100 3

(0, 0)
101 1

(0, 0)
(3, 34)
(6, 17)
(6, 34)
102 4

(0, 0)
103 1

(0, 0)
(8, 13)
(8, 26)
104 3

(0, 0)
(3, 35)
(5, 21)
(7, 15)
(15, 21)
(15, 35)
(21, 35)
105 7

(0, 0)
106 1

(0, 0)
107 1

(0, 0)
(4, 27)
(12, 27)
(27, 36)
108 4

(0, 0)
109 1

(0, 0)
(5, 22)
(10, 11)
(10, 22)
110 4

(0, 0)
(3, 37)
111 2

(0, 0)
(7, 16)
(14, 16)
(16, 28)
112 4

(0, 0)
113 1

(0, 0)
(3, 38)
(6, 19)
(6, 38)
114 4

(0, 0)
(5, 23)
115 2

(0, 0)
(4, 29)
116 2

(0, 0)
(9, 13)
(9, 39)
117 3

(0, 0)
118 1

(0, 0)
(7, 17)
119 2

(0, 0)
(3, 40)
(5, 24)
(6, 40)
(8, 15)
(8, 30)
(10, 24)
(12, 40)
(15, 24)
(15, 40)
(20, 24)
(24, 30)
(24, 40)
(30, 40)
120 14

(0, 0)
121 1

(0, 0)
122 1

(0, 0)
(3, 41)
123 2

(0, 0)
(4, 31)
124 2

(0, 0)
125 1

(0, 0)
(7, 18)
(9, 14)
(9, 42)
(14, 18)
(18, 21)
(18, 42)
126 7

(0, 0)
127 1

(0, 0)
128 1

(0, 0)
(3, 43)
129 2

(0, 0)
(5, 26)
(10, 13)
(10, 26)
130 4

(0, 0)
131 1

(0, 0)
(3, 44)
(4, 33)
(6, 44)
(11, 12)
(12, 22)
(12, 33)
(12, 44)
(33, 44)
132 9

(0, 0)
(7, 19)
133 2

(0, 0)
134 1

(0, 0)
(5, 27)
(15, 27)
(27, 45)
135 4

(0, 0)
(8, 17)
(8, 34)
136 3

(0, 0)
137 1

(0, 0)
(3, 46)
(6, 23)
(6, 46)
138 4

(0, 0)
139 1

(0, 0)
(4, 35)
(5, 28)
(7, 20)
(10, 28)
(14, 20)
(20, 28)
(20, 35)
(28, 35)
140 9

(0, 0)
(3, 47)
141 2

(0, 0)
142 1

(0, 0)
(11, 13)
143 2

(0, 0)
(9, 16)
(9, 48)
(16, 18)
(16, 36)
(18, 48)
(36, 48)
144 7

(0, 0)
(5, 29)
145 2

(0, 0)
146 1

(0, 0)
(3, 49)
(21, 49)
147 3

(0, 0)
(4, 37)
148 2

(0, 0)
149 1

(0, 0)
(3, 50)
(6, 25)
(6, 50)
(15, 50)
(25, 30)
(30, 50)
150 7

(0, 0)
151 1

(0, 0)
(8, 19)
(8, 38)
152 3

(0, 0)
(9, 17)
(9, 51)
153 3

(0, 0)
(7, 22)
(11, 14)
(14, 22)
154 4

(0, 0)
(5, 31)
155 2

(0, 0)
(3, 52)
(4, 39)
(6, 52)
(12, 13)
(12, 26)
(12, 39)
(12, 52)
(39, 52)
156 9

(0, 0)
157 1

(0, 0)
158 1

(0, 0)
(3, 53)
159 2

(0, 0)
(5, 32)
(10, 32)
(20, 32)
(32, 40)
160 5

(0, 0)
(7, 23)
161 2

(0, 0)
162 1

(0, 0)
163 1

(0, 0)
(4, 41)
164 2

(0, 0)
(3, 55)
(5, 33)
(11, 15)
(15, 33)
(15, 55)
(33, 55)
165 7

(0, 0)
166 1

(0, 0)
167 1

(0, 0)
(3, 56)
(6, 56)
(7, 24)
(8, 21)
(8, 42)
(12, 56)
(14, 24)
(21, 24)
(21, 56)
(24, 28)
(24, 42)
(24, 56)
(42, 56)
168 14

(0, 0)
169 1

(0, 0)
(5, 34)
(10, 17)
(10, 34)
170 4

(0, 0)
(9, 19)
(9, 57)
171 3

(0, 0)
(4, 43)
172 2

(0, 0)
173 1

(0, 0)
(3, 58)
(6, 29)
(6, 58)
174 4

(0, 0)
(7, 25)
(25, 35)
175 3

(0, 0)
(11, 16)
(16, 22)
(16, 44)
176 4

(0, 0)
(3, 59)
177 2

(0, 0)
178 1

(0, 0)
179 1

(0, 0)
(4, 45)
(5, 36)
(9, 20)
(9, 60)
(10, 36)
(12, 45)
(15, 36)
(18, 20)
(18, 60)
(20, 36)
(20, 45)
(30, 36)
(36, 45)
(36, 60)
(45, 60)
180 16

(0, 0)
181 1

(0, 0)
(7, 26)
(13, 14)
(14, 26)
182 4

(0, 0)
(3, 61)
183 2

(0, 0)
(8, 23)
(8, 46)
184 3

(0, 0)
(5, 37)
185 2

(0, 0)
(3, 62)
(6, 31)
(6, 62)
186 4

(0, 0)
(11, 17)
187 2

(0, 0)
(4, 47)
188 2

(0, 0)
(7, 27)
(21, 27)
(27, 63)
189 4

(0, 0)
(5, 38)
(10, 19)
(10, 38)
190 4

(0, 0)
191 1

(0, 0)
(3, 64)
(6, 64)
(12, 64)
(24, 64)
(48, 64)
192 6

(0, 0)
193 1

(0, 0)
194 1

(0, 0)
(3, 65)
(5, 39)
(13, 15)
(15, 39)
(15, 65)
(39, 65)
195 7

(0, 0)
(4, 49)
(28, 49)
196 3

(0, 0)
197 1

(0, 0)
(9, 22)
(9, 66)
(11, 18)
(18, 22)
(18, 33)
(18, 66)
198 7

(0, 0)
199 1

(0, 0)
(8, 25)
(8, 50)
(25, 40)
(40, 50)
200 5

(0, 0)
(3, 67)
201 2

(0, 0)
202 1

(0, 0)
(7, 29)
203 2

(0, 0)
(3, 68)
(4, 51)
(6, 68)
(12, 17)
(12, 34)
(12, 51)
(12, 68)
(51, 68)
204 9

(0, 0)
(5, 41)
205 2

(0, 0)
206 1

(0, 0)
(9, 23)
(9, 69)
207 3

(0, 0)
(13, 16)
(16, 26)
(16, 52)
208 4

(0, 0)
(11, 19)
209 2

(0, 0)
(3, 70)
(5, 42)
(6, 35)
(6, 70)
(7, 30)
(10, 21)
(10, 42)
(14, 15)
(14, 30)
(15, 42)
(15, 70)
(21, 30)
(21, 70)
(30, 35)
(30, 42)
(30, 70)
(35, 42)
(42, 70)
210 19

(0, 0)
211 1

(0, 0)
(4, 53)
212 2

(0, 0)
(3, 71)
213 2

(0, 0)
214 1

(0, 0)
(5, 43)
215 2

(0, 0)
(8, 27)
(8, 54)
(24, 27)
(24, 54)
(27, 72)
(54, 72)
216 7

(0, 0)
(7, 31)
217 2

(0, 0)
218 1

(0, 0)
(3, 73)
219 2

(0, 0)
(4, 55)
(5, 44)
(10, 44)
(11, 20)
(20, 22)
(20, 44)
(20, 55)
(44, 55)
220 9

(0, 0)
(13, 17)
221 2

(0, 0)
(3, 74)
(6, 37)
(6, 74)
222 4

(0, 0)
223 1

(0, 0)
(7, 32)
(14, 32)
(28, 32)
(32, 56)
224 5

(0, 0)
(9, 25)
(9, 75)
(25, 45)
(45, 75)
225 5

(0, 0)
226 1

(0, 0)
227 1

(0, 0)
(3, 76)
(4, 57)
(6, 76)
(12, 19)
(12, 38)
(12, 57)
(12, 76)
(57, 76)
228 9

(0, 0)
229 1

(0, 0)
(5, 46)
(10, 23)
(10, 46)
230 4

(0, 0)
(3, 77)
(7, 33)
(11, 21)
(21, 33)
(21, 77)
(33, 77)
231 7

(0, 0)
(8, 29)
(8, 58)
232 3

(0, 0)
233 1

(0, 0)
(9, 26)
(9, 78)
(13, 18)
(18, 26)
(18, 39)
(18, 78)
234 7

(0, 0)
(5, 47)
235 2

(0, 0)
(4, 59)
236 2

(0, 0)
(3, 79)
237 2

(0, 0)
(7, 34)
(14, 17)
(14, 34)
238 4

(0, 0)
239 1

(0, 0)
(3, 80)
(5, 48)
(6, 80)
(10, 48)
(12, 80)
(15, 16)
(15, 48)
(15, 80)
(16, 30)
(16, 60)
(20, 48)
(24, 80)
(30, 48)
(30, 80)
(40, 48)
(48, 60)
(48, 80)
(60, 80)
240 19

(0, 0)
241 1

(0, 0)
242 1

(0, 0)
243 1

(0, 0)
(4, 61)
244 2

(0, 0)
(5, 49)
(35, 49)
245 3

(0, 0)
(3, 82)
(6, 41)
(6, 82)
246 4

(0, 0)
(13, 19)
247 2

(0, 0)
(8, 31)
(8, 62)
248 3

(0, 0)
(3, 83)
249 2

(0, 0)
250 1

(0, 0)
251 1

(0, 0)
(4, 63)
(7, 36)
(9, 28)
(9, 84)
(12, 63)
(14, 36)
(18, 28)
(18, 84)
(21, 36)
(28, 36)
(28, 63)
(36, 42)
(36, 63)
(36, 84)
(63, 84)
252 16

(0, 0)
(11, 23)
253 2

(0, 0)
254 1

(0, 0)
(3, 85)
(5, 51)
(15, 17)
(15, 51)
(15, 85)
(51, 85)
255 7

(0, 0)
256 1

(0, 0)
257 1

(0, 0)
(3, 86)
(6, 43)
(6, 86)
258 4

(0, 0)
(7, 37)
259 2

(0, 0)
(4, 65)
(5, 52)
(10, 52)
(13, 20)
(20, 26)
(20, 52)
(20, 65)
(52, 65)
260 9

(0, 0)
(9, 29)
(9, 87)
261 3

(0, 0)
262 1

(0, 0)
263 1

(0, 0)
(3, 88)
(6, 88)
(8, 33)
(8, 66)
(11, 24)
(12, 88)
(22, 24)
(24, 33)
(24, 44)
(24, 66)
(24, 88)
(33, 88)
(66, 88)
264 14

(0, 0)
(5, 53)
265 2

(0, 0)
(7, 38)
(14, 19)
(14, 38)
266 4

(0, 0)
(3, 89)
267 2

(0, 0)
(4, 67)
268 2

(0, 0)
269 1

(0, 0)
(5, 54)
(10, 27)
(10, 54)
(15, 54)
(27, 30)
(27, 90)
(30, 54)
(45, 54)
(54, 90)
270 10

(0, 0)
271 1

(0, 0)
(16, 17)
(16, 34)
(16, 68)
272 4

(0, 0)
(3, 91)
(7, 39)
(13, 21)
(21, 39)
(21, 91)
(39, 91)
273 7

(0, 0)
274 1

(0, 0)
(11, 25)
(25, 55)
275 3

(0, 0)
(3, 92)
(4, 69)
(6, 92)
(12, 23)
(12, 46)
(12, 69)
(12, 92)
(69, 92)
276 9

(0, 0)
277 1

(0, 0)
278 1

(0, 0)
(9, 31)
(9, 93)
279 3

(0, 0)
(5, 56)
(7, 40)
(8, 35)
(8, 70)
(10, 56)
(14, 40)
(20, 56)
(28, 40)
(35, 40)
(35, 56)
(40, 56)
(40, 70)
(56, 70)
280 14

(0, 0)
281 1

(0, 0)
(3, 94)
(6, 47)
(6, 94)
282 4

(0, 0)
283 1

(0, 0)
(4, 71)
284 2

(0, 0)
(3, 95)
(5, 57)
(15, 19)
(15, 57)
(15, 95)
(57, 95)
285 7

(0, 0)
(11, 26)
(13, 22)
(22, 26)
286 4

(0, 0)
(7, 41)
287 2

(0, 0)
(9, 32)
(9, 96)
(18, 32)
(18, 96)
(32, 36)
(32, 72)
(36, 96)
(72, 96)
288 9

(0, 0)
289 1

(0, 0)
(5, 58)
(10, 29)
(10, 58)
290 4

(0, 0)
(3, 97)
291 2

(0, 0)
(4, 73)
292 2

(0, 0)
293 1

(0, 0)
(3, 98)
(6, 49)
(6, 98)
(21, 98)
(42, 49)
(42, 98)
294 7

(0, 0)
(5, 59)
295 2

(0, 0)
(8, 37)
(8, 74)
296 3

(0, 0)
(11, 27)
(27, 33)
(27, 99)
297 4

(0, 0)
298 1

(0, 0)
(13, 23)
299 2

(0, 0)
(3, 100)
(4, 75)
(6, 100)
(12, 25)
(12, 50)
(12, 75)
(12, 100)
(15, 100)
(20, 75)
(25, 60)
(30, 100)
(50, 60)
(60, 75)
(60, 100)
(75, 100)
300 16

(0, 0)
(7, 43)
301 2

(0, 0)
302 1

(0, 0)
(3, 101)
303 2

(0, 0)
(16, 19)
(16, 38)
(16, 76)
304 4

(0, 0)
(5, 61)
305 2

(0, 0)
(9, 34)
(9, 102)
(17, 18)
(18, 34)
(18, 51)
(18, 102)
306 7

(0, 0)
307 1

(0, 0)
(4, 77)
(7, 44)
(11, 28)
(14, 44)
(22, 28)
(28, 44)
(28, 77)
(44, 77)
308 9

(0, 0)
(3, 103)
309 2

(0, 0)
(5, 62)
(10, 31)
(10, 62)
310 4

(0, 0)
311 1

(0, 0)
(3, 104)
(6, 104)
(8, 39)
(8, 78)
(12, 104)
(13, 24)
(24, 26)
(24, 39)
(24, 52)
(24, 78)
(24, 104)
(39, 104)
(78, 104)
312 14

(0, 0)
313 1

(0, 0)
314 1

(0, 0)
(5, 63)
(7, 45)
(9, 35)
(9, 105)
(15, 63)
(21, 45)
(35, 45)
(35, 63)
(45, 63)
(45, 105)
(63, 105)
315 12

(0, 0)
(4, 79)
316 2

(0, 0)
317 1

(0, 0)
(3, 106)
(6, 53)
(6, 106)
318 4

(0, 0)
(11, 29)
319 2

(0, 0)
(5, 64)
(10, 64)
(20, 64)
(40, 64)
(64, 80)
320 6

(0, 0)
(3, 107)
321 2

(0, 0)
(7, 46)
(14, 23)
(14, 46)
322 4

(0, 0)
(17, 19)
323 2

(0, 0)
(4, 81)
(12, 81)
(36, 81)
(81, 108)
324 5

(0, 0)
(13, 25)
(25, 65)
325 3

(0, 0)
326 1

(0, 0)
(3, 109)
327 2

(0, 0)
(8, 41)
(8, 82)
328 3

(0, 0)
(7, 47)
329 2

(0, 0)
(3, 110)
(5, 66)
(6, 55)
(6, 110)
(10, 33)
(10, 66)
(11, 30)
(15, 22)
(15, 66)
(15, 110)
(22, 30)
(30, 33)
(30, 55)
(30, 66)
(30, 110)
(33, 110)
(55, 66)
(66, 110)
330 19

(0, 0)
331 1

(0, 0)
(4, 83)
332 2

(0, 0)
(9, 37)
(9, 111)
333 3

(0, 0)
334 1

(0, 0)
(5, 67)
335 2

(0, 0)
(3, 112)
(6, 112)
(7, 48)
(12, 112)
(14, 48)
(16, 21)
(16, 42)
(16, 84)
(21, 48)
(21, 112)
(24, 112)
(28, 48)
(42, 48)
(42, 112)
(48, 56)
(48, 84)
(48, 112)
(84, 112)
336 19

(0, 0)
337 1

(0, 0)
338 1

(0, 0)
(3, 113)
339 2

(0, 0)
(4, 85)
(5, 68)
(10, 68)
(17, 20)
(20, 34)
(20, 68)
(20, 85)
(68, 85)
340 9

(0, 0)
(11, 31)
341 2

(0, 0)
(9, 38)
(9, 114)
(18, 19)
(18, 38)
(18, 57)
(18, 114)
342 7

(0, 0)
343 1

(0, 0)
(8, 43)
(8, 86)
344 3

(0, 0)
(3, 115)
(5, 69)
(15, 23)
(15, 69)
(15, 115)
(69, 115)
345 7

(0, 0)
346 1

(0, 0)
347 1

(0, 0)
(3, 116)
(4, 87)
(6, 116)
(12, 29)
(12, 58)
(12, 87)
(12, 116)
(87, 116)
348 9

(0, 0)
349 1

(0, 0)
(7, 50)
(14, 25)
(14, 50)
(25, 70)
(35, 50)
(50, 70)
350 7

(0, 0)
(13, 27)
(27, 39)
(27, 117)
351 4

(0, 0)
(11, 32)
(22, 32)
(32, 44)
(32, 88)
352 5

(0, 0)
353 1

(0, 0)
(3, 118)
(6, 59)
(6, 118)
354 4

(0, 0)
(5, 71)
355 2

(0, 0)
(4, 89)
356 2

(0, 0)
(3, 119)
(7, 51)
(17, 21)
(21, 51)
(21, 119)
(51, 119)
357 7

(0, 0)
358 1

(0, 0)
359 1

(0, 0)
(5, 72)
(8, 45)
(8, 90)
(9, 40)
(9, 120)
(10, 72)
(15, 72)
(18, 40)
(18, 120)
(20, 72)
(24, 45)
(24, 90)
(30, 72)
(36, 40)
(36, 120)
(40, 45)
(40, 72)
(40, 90)
(45, 72)
(45, 120)
(60, 72)
(72, 90)
(72, 120)
(90, 120)
360 25

(0, 0)
361 1

(0, 0)
362 1

(0, 0)
(3, 121)
(33, 121)
363 3

(0, 0)
(4, 91)
(7, 52)
(13, 28)
(14, 52)
(26, 28)
(28, 52)
(28, 91)
(52, 91)
364 9

(0, 0)
(5, 73)
365 2

(0, 0)
(3, 122)
(6, 61)
(6, 122)
366 4

(0, 0)
367 1

(0, 0)
(16, 23)
(16, 46)
(16, 92)
368 4

(0, 0)
(9, 41)
(9, 123)
369 3

(0, 0)
(5, 74)
(10, 37)
(10, 74)
370 4

(0, 0)
(7, 53)
371 2

(0, 0)
(3, 124)
(4, 93)
(6, 124)
(12, 31)
(12, 62)
(12, 93)
(12, 124)
(93, 124)
372 9

(0, 0)
373 1

(0, 0)
(11, 34)
(17, 22)
(22, 34)
374 4

(0, 0)
(3, 125)
(15, 125)
(75, 125)
375 4

(0, 0)
(8, 47)
(8, 94)
376 3

(0, 0)
(13, 29)
377 2

(0, 0)
(7, 54)
(14, 27)
(14, 54)
(21, 54)
(27, 42)
(27, 126)
(42, 54)
(54, 63)
(54, 126)
378 10

(0, 0)
379 1

(0, 0)
(4, 95)
(5, 76)
(10, 76)
(19, 20)
(20, 38)
(20, 76)
(20, 95)
(76, 95)
380 9

(0, 0)
(3, 127)
381 2

(0, 0)
382 1

(0, 0)
383 1

(0, 0)
(3, 128)
(6, 128)
(12, 128)
(24, 128)
(48, 128)
(96, 128)
384 7

(0, 0)
(5, 77)
(7, 55)
(11, 35)
(35, 55)
(35, 77)
(55, 77)
385 7

(0, 0)
386 1

(0, 0)
(9, 43)
(9, 129)
387 3

(0, 0)
(4, 97)
388 2

(0, 0)
389 1

(0, 0)
(3, 130)
(5, 78)
(6, 65)
(6, 130)
(10, 39)
(10, 78)
(13, 30)
(15, 26)
(15, 78)
(15, 130)
(26, 30)
(30, 39)
(30, 65)
(30, 78)
(30, 130)
(39, 130)
(65, 78)
(78, 130)
390 19

(0, 0)
(17, 23)
391 2

(0, 0)
(8, 49)
(8, 98)
(49, 56)
(56, 98)
392 5

(0, 0)
(3, 131)
393 2

(0, 0)
394 1

(0, 0)
(5, 79)
395 2

(0, 0)
(4, 99)
(9, 44)
(9, 132)
(11, 36)
(12, 99)
(18, 44)
(18, 132)
(22, 36)
(33, 36)
(36, 44)
(36, 66)
(36, 99)
(36, 132)
(44, 99)
(99, 132)
396 16

(0, 0)
397 1

(0, 0)
398 1

(0, 0)
(3, 133)
(7, 57)
(19, 21)
(21, 57)
(21, 133)
(57, 133)
399 7

(0, 0)
(16, 25)
(16, 50)
(16, 100)
(25, 80)
(50, 80)
(80, 100)
400 7

(0, 0)
401 1

(0, 0)
(3, 134)
(6, 67)
(6, 134)
402 4

(0, 0)
(13, 31)
403 2

(0, 0)
(4, 101)
404 2

(0, 0)
(5, 81)
(15, 81)
(45, 81)
(81, 135)
405 5

(0, 0)
(7, 58)
(14, 29)
(14, 58)
406 4

(0, 0)
(11, 37)
407 2

(0, 0)
(3, 136)
(6, 136)
(8, 51)
(8, 102)
(12, 136)
(17, 24)
(24, 34)
(24, 51)
(24, 68)
(24, 102)
(24, 136)
(51, 136)
(102, 136)
408 14

(0, 0)
409 1

(0, 0)
(5, 82)
(10, 41)
(10, 82)
410 4

(0, 0)
(3, 137)
411 2

(0, 0)
(4, 103)
412 2

(0, 0)
(7, 59)
413 2

(0, 0)
(9, 46)
(9, 138)
(18, 23)
(18, 46)
(18, 69)
(18, 138)
414 7

(0, 0)
(5, 83)
415 2

(0, 0)
(13, 32)
(26, 32)
(32, 52)
(32, 104)
416 5

(0, 0)
(3, 139)
417 2

(0, 0)
(11, 38)
(19, 22)
(22, 38)
418 4

(0, 0)
419 1

(0, 0)
(3, 140)
(4, 105)
(5, 84)
(6, 140)
(7, 60)
(10, 84)
(12, 35)
(12, 70)
(12, 105)
(12, 140)
(14, 60)
(15, 28)
(15, 84)
(15, 140)
(20, 21)
(20, 42)
(20, 84)
(20, 105)
(21, 60)
(21, 140)
(28, 30)
(28, 60)
(28, 105)
(30, 84)
(30, 140)
(35, 60)
(35, 84)
(42, 60)
(42, 140)
(60, 70)
(60, 84)
(60, 105)
(60, 140)
(70, 84)
(84, 105)
(84, 140)
(105, 140)
420 38

(0, 0)
421 1

(0, 0)
422 1

(0, 0)
(9, 47)
(9, 141)
423 3

(0, 0)
(8, 53)
(8, 106)
424 3

(0, 0)
(17, 25)
(25, 85)
425 3

(0, 0)
(3, 142)
(6, 71)
(6, 142)
426 4

(0, 0)
(7, 61)
427 2

(0, 0)
(4, 107)
428 2

(0, 0)
(3, 143)
(11, 39)
(13, 33)
(33, 39)
(33, 143)
(39, 143)
429 7

(0, 0)
(5, 86)
(10, 43)
(10, 86)
430 4

(0, 0)
431 1

(0, 0)
(16, 27)
(16, 54)
(16, 108)
(27, 48)
(27, 144)
(48, 54)
(48, 108)
(54, 144)
(108, 144)
432 10

(0, 0)
433 1

(0, 0)
(7, 62)
(14, 31)
(14, 62)
434 4

(0, 0)
(3, 145)
(5, 87)
(15, 29)
(15, 87)
(15, 145)
(87, 145)
435 7

(0, 0)
(4, 109)
436 2

(0, 0)
(19, 23)
437 2

(0, 0)
(3, 146)
(6, 73)
(6, 146)
438 4

(0, 0)
439 1

(0, 0)
(5, 88)
(8, 55)
(8, 110)
(10, 88)
(11, 40)
(20, 88)
(22, 40)
(40, 44)
(40, 55)
(40, 88)
(40, 110)
(55, 88)
(88, 110)
440 14

(0, 0)
(9, 49)
(9, 147)
(49, 63)
(63, 147)
441 5

(0, 0)
(13, 34)
(17, 26)
(26, 34)
442 4

(0, 0)
443 1

(0, 0)
(3, 148)
(4, 111)
(6, 148)
(12, 37)
(12, 74)
(12, 111)
(12, 148)
(111, 148)
444 9

(0, 0)
(5, 89)
445 2

(0, 0)
446 1

(0, 0)
(3, 149)
447 2

(0, 0)
(7, 64)
(14, 64)
(28, 64)
(56, 64)
(64, 112)
448 6

(0, 0)
449 1

(0, 0)
(9, 50)
(9, 150)
(18, 25)
(18, 50)
(18, 75)
(18, 150)
(25, 90)
(45, 50)
(45, 150)
(50, 90)
(75, 90)
(90, 150)
450 13

(0, 0)
(11, 41)
451 2

(0, 0)
(4, 113)
452 2

(0, 0)
(3, 151)
453 2

(0, 0)
454 1

(0, 0)
(5, 91)
(7, 65)
(13, 35)
(35, 65)
(35, 91)
(65, 91)
455 7

(0, 0)
(3, 152)
(6, 152)
(8, 57)
(8, 114)
(12, 152)
(19, 24)
(24, 38)
(24, 57)
(24, 76)
(24, 114)
(24, 152)
(57, 152)
(114, 152)
456 14

(0, 0)
457 1

(0, 0)
458 1

(0, 0)
(17, 27)
(27, 51)
(27, 153)
459 4

(0, 0)
(4, 115)
(5, 92)
(10, 92)
(20, 23)
(20, 46)
(20, 92)
(20, 115)
(92, 115)
460 9

(0, 0)
461 1

(0, 0)
(3, 154)
(6, 77)
(6, 154)
(7, 66)
(11, 42)
(14, 33)
(14, 66)
(21, 22)
(21, 66)
(21, 154)
(22, 42)
(33, 42)
(33, 154)
(42, 66)
(42, 77)
(42, 154)
(66, 77)
(66, 154)
462 19

(0, 0)
463 1

(0, 0)
(16, 29)
(16, 58)
(16, 116)
464 4

(0, 0)
(3, 155)
(5, 93)
(15, 31)
(15, 93)
(15, 155)
(93, 155)
465 7

(0, 0)
466 1

(0, 0)
467 1

(0, 0)
(4, 117)
(9, 52)
(9, 156)
(12, 117)
(13, 36)
(18, 52)
(18, 156)
(26, 36)
(36, 39)
(36, 52)
(36, 78)
(36, 117)
(36, 156)
(52, 117)
(117, 156)
468 16

(0, 0)
(7, 67)
469 2

(0, 0)
(5, 94)
(10, 47)
(10, 94)
470 4

(0, 0)
(3, 157)
471 2

(0, 0)
(8, 59)
(8, 118)
472 3

(0, 0)
(11, 43)
473 2

(0, 0)
(3, 158)
(6, 79)
(6, 158)
474 4

(0, 0)
(19, 25)
(25, 95)
475 3

(0, 0)
(4, 119)
(7, 68)
(14, 68)
(17, 28)
(28, 34)
(28, 68)
(28, 119)
(68, 119)
476 9

(0, 0)
(9, 53)
(9, 159)
477 3

(0, 0)
478 1

(0, 0)
479 1

(0, 0)
(3, 160)
(5, 96)
(6, 160)
(10, 96)
(12, 160)
(15, 32)
(15, 96)
(15, 160)
(20, 96)
(24, 160)
(30, 32)
(30, 96)
(30, 160)
(32, 60)
(32, 120)
(40, 96)
(48, 160)
(60, 96)
(60, 160)
(80, 96)
(96, 120)
(96, 160)
(120, 160)
480 24

(0, 0)
(13, 37)
481 2

(0, 0)
482 1

(0, 0)
(3, 161)
(7, 69)
(21, 23)
(21, 69)
(21, 161)
(69, 161)
483 7

(0, 0)
(4, 121)
(44, 121)
484 3

(0, 0)
(5, 97)
485 2

(0, 0)
486 1

(0, 0)
487 1

(0, 0)
(8, 61)
(8, 122)
488 3

(0, 0)
(3, 163)
489 2

(0, 0)
(5, 98)
(10, 49)
(10, 98)
(35, 98)
(49, 70)
(70, 98)
490 7

(0, 0)
491 1

(0, 0)
(3, 164)
(4, 123)
(6, 164)
(12, 41)
(12, 82)
(12, 123)
(12, 164)
(123, 164)
492 9

(0, 0)
(17, 29)
493 2

(0, 0)
(13, 38)
(19, 26)
(26, 38)
494 4

(0, 0)
(5, 99)
(9, 55)
(9, 165)
(11, 45)
(15, 99)
(33, 45)
(45, 55)
(45, 99)
(45, 165)
(55, 99)
(99, 165)
495 12

(0, 0)
(16, 31)
(16, 62)
(16, 124)
496 4

(0, 0)
(7, 71)
497 2

(0, 0)
(3, 166)
(6, 83)
(6, 166)
498 4

(0, 0)
499 1

(0, 0)
(4, 125)
(20, 125)
(100, 125)
500 4

(0, 0)
(3, 167)
501 2

(0, 0)
502 1

(0, 0)
503 1

(0, 0)
(7, 72)
(8, 63)
(8, 126)
(9, 56)
(9, 168)
(14, 72)
(18, 56)
(18, 168)
(21, 72)
(24, 63)
(24, 126)
(28, 72)
(36, 56)
(36, 168)
(42, 72)
(56, 63)
(56, 72)
(56, 126)
(63, 72)
(63, 168)
(72, 84)
(72, 126)
(72, 168)
(126, 168)
504 25

(0, 0)
(5, 101)
505 2

(0, 0)
(11, 46)
(22, 23)
(22, 46)
506 4

(0, 0)
(3, 169)
(39, 169)
507 3

(0, 0)
(4, 127)
508 2

(0, 0)
509 1

(0, 0)
(3, 170)
(5, 102)
(6, 85)
(6, 170)
(10, 51)
(10, 102)
(15, 34)
(15, 102)
(15, 170)
(17, 30)
(30, 34)
(30, 51)
(30, 85)
(30, 102)
(30, 170)
(51, 170)
(85, 102)
(102, 170)
510 19

(0, 0)
(7, 73)
511 2

(0, 0)
512 1

(0, 0)
(19, 27)
(27, 57)
(27, 171)
513 4

(0, 0)
514 1

(0, 0)
(5, 103)
515 2

(0, 0)
(3, 172)
(4, 129)
(6, 172)
(12, 43)
(12, 86)
(12, 129)
(12, 172)
(129, 172)
516 9

(0, 0)
(11, 47)
517 2

(0, 0)
(7, 74)
(14, 37)
(14, 74)
518 4

(0, 0)
(3, 173)
519 2

(0, 0)
(5, 104)
(8, 65)
(8, 130)
(10, 104)
(13, 40)
(20, 104)
(26, 40)
(40, 52)
(40, 65)
(40, 104)
(40, 130)
(65, 104)
(104, 130)
520 14

(0, 0)
521 1

(0, 0)
(9, 58)
(9, 174)
(18, 29)
(18, 58)
(18, 87)
(18, 174)
522 7

(0, 0)
523 1

(0, 0)
(4, 131)
524 2

(0, 0)
(3, 175)
(7, 75)
(15, 175)
(21, 25)
(21, 75)
(21, 175)
(25, 105)
(35, 75)
(75, 105)
(75, 175)
(105, 175)
525 12

(0, 0)
526 1

(0, 0)
(17, 31)
527 2

(0, 0)
(3, 176)
(6, 176)
(11, 48)
(12, 176)
(16, 33)
(16, 66)
(16, 132)
(22, 48)
(24, 176)
(33, 48)
(33, 176)
(44, 48)
(48, 66)
(48, 88)
(48, 132)
(48, 176)
(66, 176)
(132, 176)
528 19

(0, 0)
529 1

(0, 0)
(5, 106)
(10, 53)
(10, 106)
530 4

(0, 0)
(9, 59)
(9, 177)
531 3

(0, 0)
(4, 133)
(7, 76)
(14, 76)
(19, 28)
(28, 38)
(28, 76)
(28, 133)
(76, 133)
532 9

(0, 0)
(13, 41)
533 2

(0, 0)
(3, 178)
(6, 89)
(6, 178)
534 4

(0, 0)
(5, 107)
535 2

(0, 0)
(8, 67)
(8, 134)
536 3

(0, 0)
(3, 179)
537 2

(0, 0)
538 1

(0, 0)
(11, 49)
(49, 77)
539 3

(0, 0)
(4, 135)
(5, 108)
(10, 108)
(12, 135)
(15, 108)
(20, 27)
(20, 54)
(20, 108)
(20, 135)
(27, 60)
(27, 180)
(30, 108)
(36, 135)
(45, 108)
(54, 60)
(54, 180)
(60, 108)
(60, 135)
(90, 108)
(108, 135)
(108, 180)
(135, 180)
540 23

(0, 0)
541 1

(0, 0)
542 1

(0, 0)
(3, 181)
543 2

(0, 0)
(17, 32)
(32, 34)
(32, 68)
(32, 136)
544 5

(0, 0)
(5, 109)
545 2

(0, 0)
(3, 182)
(6, 91)
(6, 182)
(7, 78)
(13, 42)
(14, 39)
(14, 78)
(21, 26)
(21, 78)
(21, 182)
(26, 42)
(39, 42)
(39, 182)
(42, 78)
(42, 91)
(42, 182)
(78, 91)
(78, 182)
546 19

(0, 0)
547 1

(0, 0)
(4, 137)
548 2

(0, 0)
(9, 61)
(9, 183)
549 3

(0, 0)
(11, 50)
(22, 25)
(22, 50)
(25, 110)
(50, 55)
(50, 110)
550 7

(0, 0)
(19, 29)
551 2

(0, 0)
(3, 184)
(6, 184)
(8, 69)
(8, 138)
(12, 184)
(23, 24)
(24, 46)
(24, 69)
(24, 92)
(24, 138)
(24, 184)
(69, 184)
(138, 184)
552 14

(0, 0)
(7, 79)
553 2

(0, 0)
554 1

(0, 0)
(3, 185)
(5, 111)
(15, 37)
(15, 111)
(15, 185)
(111, 185)
555 7

(0, 0)
(4, 139)
556 2

(0, 0)
557 1

(0, 0)
(9, 62)
(9, 186)
(18, 31)
(18, 62)
(18, 93)
(18, 186)
558 7

(0, 0)
(13, 43)
559 2

(0, 0)
(5, 112)
(7, 80)
(10, 112)
(14, 80)
(16, 35)
(16, 70)
(16, 140)
(20, 112)
(28, 80)
(35, 80)
(35, 112)
(40, 112)
(56, 80)
(70, 80)
(70, 112)
(80, 112)
(80, 140)
(112, 140)
560 19

(0, 0)
(3, 187)
(11, 51)
(17, 33)
(33, 51)
(33, 187)
(51, 187)
561 7

(0, 0)
562 1

(0, 0)
563 1

(0, 0)
(3, 188)
(4, 141)
(6, 188)
(12, 47)
(12, 94)
(12, 141)
(12, 188)
(141, 188)
564 9

(0, 0)
(5, 113)
565 2

(0, 0)
566 1

(0, 0)
(7, 81)
(21, 81)
(63, 81)
(81, 189)
567 5

(0, 0)
(8, 71)
(8, 142)
568 3

(0, 0)
569 1

(0, 0)
(3, 190)
(5, 114)
(6, 95)
(6, 190)
(10, 57)
(10, 114)
(15, 38)
(15, 114)
(15, 190)
(19, 30)
(30, 38)
(30, 57)
(30, 95)
(30, 114)
(30, 190)
(57, 190)
(95, 114)
(114, 190)
570 19

(0, 0)
571 1

(0, 0)
(4, 143)
(11, 52)
(13, 44)
(22, 52)
(26, 44)
(44, 52)
(44, 143)
(52, 143)
572 9

(0, 0)
(3, 191)
573 2

(0, 0)
(7, 82)
(14, 41)
(14, 82)
574 4

(0, 0)
(23, 25)
(25, 115)
575 3

(0, 0)
(9, 64)
(9, 192)
(18, 64)
(18, 192)
(36, 64)
(36, 192)
(64, 72)
(64, 144)
(72, 192)
(144, 192)
576 11

(0, 0)
577 1

(0, 0)
578 1

(0, 0)
(3, 193)
579 2

(0, 0)
(4, 145)
(5, 116)
(10, 116)
(20, 29)
(20, 58)
(20, 116)
(20, 145)
(116, 145)
580 9

(0, 0)
(7, 83)
581 2

(0, 0)
(3, 194)
(6, 97)
(6, 194)
582 4

(0, 0)
(11, 53)
583 2

(0, 0)
(8, 73)
(8, 146)
584 3

(0, 0)
(5, 117)
(9, 65)
(9, 195)
(13, 45)
(15, 117)
(39, 45)
(45, 65)
(45, 117)
(45, 195)
(65, 117)
(117, 195)
585 12

(0, 0)
586 1

(0, 0)
587 1

(0, 0)
(3, 196)
(4, 147)
(6, 196)
(12, 49)
(12, 98)
(12, 147)
(12, 196)
(21, 196)
(28, 147)
(42, 196)
(49, 84)
(84, 98)
(84, 147)
(84, 196)
(147, 196)
588 16

(0, 0)
(19, 31)
589 2

(0, 0)
(5, 118)
(10, 59)
(10, 118)
590 4

(0, 0)
(3, 197)
591 2

(0, 0)
(16, 37)
(16, 74)
(16, 148)
592 4

(0, 0)
593 1

(0, 0)
(11, 54)
(22, 27)
(22, 54)
(27, 66)
(27, 198)
(33, 54)
(54, 66)
(54, 99)
(54, 198)
594 10

(0, 0)
(5, 119)
(7, 85)
(17, 35)
(35, 85)
(35, 119)
(85, 119)
595 7

(0, 0)
(4, 149)
596 2

(0, 0)
(3, 199)
597 2

(0, 0)
(13, 46)
(23, 26)
(26, 46)
598 4

(0, 0)
599 1

(0, 0)
(3, 200)
(6, 200)
(8, 75)
(8, 150)
(12, 200)
(15, 200)
(24, 25)
(24, 50)
(24, 75)
(24, 100)
(24, 150)
(24, 200)
(25, 120)
(30, 200)
(40, 75)
(40, 150)
(50, 120)
(60, 200)
(75, 120)
(75, 200)
(100, 120)
(120, 150)
(120, 200)
(150, 200)
600 25

(0, 0)
601 1

(0, 0)
(7, 86)
(14, 43)
(14, 86)
602 4

(0, 0)
(9, 67)
(9, 201)
603 3

(0, 0)
(4, 151)
604 2

(0, 0)
(5, 121)
(55, 121)
605 3

(0, 0)
(3, 202)
(6, 101)
(6, 202)
606 4

(0, 0)
607 1

(0, 0)
(19, 32)
(32, 38)
(32, 76)
(32, 152)
608 5

(0, 0)
(3, 203)
(7, 87)
(21, 29)
(21, 87)
(21, 203)
(87, 203)
609 7

(0, 0)
(5, 122)
(10, 61)
(10, 122)
610 4

(0, 0)
(13, 47)
611 2

(0, 0)
(4, 153)
(9, 68)
(9, 204)
(12, 153)
(17, 36)
(18, 68)
(18, 204)
(34, 36)
(36, 51)
(36, 68)
(36, 102)
(36, 153)
(36, 204)
(68, 153)
(153, 204)
612 16

(0, 0)
613 1

(0, 0)
614 1

(0, 0)
(3, 205)
(5, 123)
(15, 41)
(15, 123)
(15, 205)
(123, 205)
615 7

(0, 0)
(7, 88)
(8, 77)
(8, 154)
(11, 56)
(14, 88)
(22, 56)
(28, 88)
(44, 56)
(56, 77)
(56, 88)
(56, 154)
(77, 88)
(88, 154)
616 14

(0, 0)
617 1

(0, 0)
(3, 206)
(6, 103)
(6, 206)
618 4

(0, 0)
619 1

(0, 0)
(4, 155)
(5, 124)
(10, 124)
(20, 31)
(20, 62)
(20, 124)
(20, 155)
(124, 155)
620 9

(0, 0)
(23, 27)
(27, 69)
(27, 207)
621 4

(0, 0)
622 1

(0, 0)
(7, 89)
623 2

(0, 0)
(3, 208)
(6, 208)
(12, 208)
(13, 48)
(16, 39)
(16, 78)
(16, 156)
(24, 208)
(26, 48)
(39, 48)
(39, 208)
(48, 52)
(48, 78)
(48, 104)
(48, 156)
(48, 208)
(78, 208)
(156, 208)
624 19

(0, 0)
625 1

(0, 0)
626 1

(0, 0)
(3, 209)
(11, 57)
(19, 33)
(33, 57)
(33, 209)
(57, 209)
627 7

(0, 0)
(4, 157)
628 2

(0, 0)
(17, 37)
629 2

(0, 0)
(5, 126)
(7, 90)
(9, 70)
(9, 210)
(10, 63)
(10, 126)
(14, 45)
(14, 90)
(15, 126)
(18, 35)
(18, 70)
(18, 105)
(18, 210)
(21, 90)
(30, 63)
(30, 126)
(35, 90)
(35, 126)
(42, 45)
(42, 90)
(45, 70)
(45, 126)
(45, 210)
(63, 70)
(63, 90)
(63, 210)
(70, 90)
(70, 126)
(90, 105)
(90, 126)
(90, 210)
(105, 126)
(126, 210)
630 34

(0, 0)
631 1

(0, 0)
(8, 79)
(8, 158)
632 3

(0, 0)
(3, 211)
633 2

(0, 0)
634 1

(0, 0)
(5, 127)
635 2

(0, 0)
(3, 212)
(4, 159)
(6, 212)
(12, 53)
(12, 106)
(12, 159)
(12, 212)
(159, 212)
636 9

(0, 0)
(13, 49)
(49, 91)
637 3

(0, 0)
(11, 58)
(22, 29)
(22, 58)
638 4

(0, 0)
(9, 71)
(9, 213)
639 3

(0, 0)
(5, 128)
(10, 128)
(20, 128)
(40, 128)
(80, 128)
(128, 160)
640 7

(0, 0)
641 1

(0, 0)
(3, 214)
(6, 107)
(6, 214)
642 4

(0, 0)
643 1

(0, 0)
(4, 161)
(7, 92)
(14, 92)
(23, 28)
(28, 46)
(28, 92)
(28, 161)
(92, 161)
644 9

(0, 0)
(3, 215)
(5, 129)
(15, 43)
(15, 129)
(15, 215)
(129, 215)
645 7

(0, 0)
(17, 38)
(19, 34)
(34, 38)
646 4

(0, 0)
647 1

(0, 0)
(8, 81)
(8, 162)
(24, 81)
(24, 162)
(72, 81)
(72, 162)
(81, 216)
(162, 216)
648 9

(0, 0)
(11, 59)
